{
	"ip": "127.0.0.1",
	"port": 38302,
	"match_redis": {
		"ip": "127.0.0.1",
		"port": 38300
	},
	"store_redis": {
		"ip": "127.0.0.1",
		"port": 38300
	},
	"store_mssql": {
		"user": "chdb",
		"password":"ffdev123!",
		"server":"ffdev",
		"database":"CH_gamedb",
		"pool":{"idelTimeout":30}
	}
}