-- [필수]전투 시작 전 실행 --------------------------------------------------------------------------------------------------
function Awake()
    StageNum = 1
    CustomConditionNum = 0
    TimerMax = 0
    TimerOn = 0
    GoalOn = 0
    SpawnRepeatOn = 0
    CustomConditionOn = 0
    CommanderHP = {}
    CheckCustomConditionState = 0
    CheckCommanderHPState = {}
    CheckCommanderMoveState = 0
    CheckGameTimerState= 0
    CheckCommanderSelectState = 0
    CheckCommanderSkillState = 0
    CheckCommanderMoveStateState = 0
    CheckClickUIState = 0
    CheckCommanderMoveOn = 0
    CheckCommanderSelectOn = 0
    GoalText = {}
    for i=1,10 do
      GoalText[i] = "" 
    end
    CheckTargetCommanderState = {}
    CommanderHPSave = {}
    for i=0,1 do
      CommanderHP[i] = {}
      CheckCommanderHPState[i] = {}
      CheckTargetCommanderState[i] = {}
      CommanderHPSave[i] = {}
      for j=0,20 do
         CommanderHP[i][j] = 0
         CheckCommanderHPState[i][j] = 0
         CheckTargetCommanderState[i][j] = {}
         for k=0,1 do
            CheckTargetCommanderState[i][j][k] = {}
            for l=0,10 do
              CheckTargetCommanderState[i][j][k][l] = 0
            end
         end
         for k=98,99 do
            CheckTargetCommanderState[i][j][k] = {}
            for l=0,20 do
              CheckTargetCommanderState[i][j][k][l] = 0
            end
         end
         CommanderHPSave[i][j] = 0
      end
    end
    for i=98,99 do
      CommanderHP[i] = {}
      CheckCommanderHPState[i] = {}
      CheckTargetCommanderState[i] = {}
      CommanderHPSave[i] = {}
      for j=0,20 do
         CommanderHP[i][j] = 0
         CheckCommanderHPState[i][j] = 0
         CheckTargetCommanderState[i][j] = {}
         for k=0,1 do
            CheckTargetCommanderState[i][j][k] = {}
            for l=0,10 do
              CheckTargetCommanderState[i][j][k][l] = 0
            end
         end
         for k=98,99 do
            CheckTargetCommanderState[i][j][k] = {}
            for l=0,20 do
              CheckTargetCommanderState[i][j][k][l] = 0
            end
         end
         CommanderHPSave[i][j] = 0
      end
    end
    HideUI("System Message")
    BattleEndByScript(true)
    SetLockCamera(false)
    ActiveUI("Prologue", true)
    ActiveUI("Cinematic Open1", true)
    ActiveUI("Cinematic Open2", true)
    --HideBattleUI()
    TextPrint("Prologue Label","1944년 12월 16일 미군 2사단 후방지역")
    StageNum = 2
end
-- [필수]전투 시작 후 실행 --------------------------------------------------------------------------------------------------
function Start()
    GoClickUI("Commander Button - Client 0")
    SetMp(1,25)
    Sleep(2.0,"CustomFunction0")
end
-- [필수]체크포인트 점령 --------------------------------------------------------------------------------------------
function CheckConquestCheckPoint(checkPointId, teamIdx)
    if checkPointId == 2 and teamIdx == 1 then
        RemoveCheckConquest(2,1)
        CustomFunction42()
    end
end
-- [필수]부대 소환 ---------------------------------------------------------------------------------------------------------
function CheckCommanderSpawn(userIdx, slotIdx)
    if userIdx == 0 and slotIdx == 0 then
        AddCheckHP(0,0)
    elseif userIdx == 99 and slotIdx == 1 then
        AddCheckHP(99,1)
    elseif userIdx == 99 and slotIdx == 2 then
        AddCheckHP(99,2)
    elseif userIdx == 99 and slotIdx == 3 then
        AddCheckHP(99,3)
    elseif userIdx == 1 and slotIdx == 0 then
        AddCheckHP(1,0)
    elseif userIdx == 1 and slotIdx == 1 then
        AddCheckHP(1,1)
    elseif userIdx == 1 and slotIdx == 2 then
        AddCheckHP(1,2)
    elseif userIdx == 0 and slotIdx == 1 then
        ActiveUI("Touch Guide", false)
        Sleep(1.0, "CustomFunction198")
    end
end
-- [필수]HP 확인 ---------------------------------------------------------------------------------------------------------
function CheckCommanderHP(userIdx, slotIdx, hp)
    if userIdx == 1 and slotIdx == 0 then
        if CommanderHPSave[1][0] == 1 then
            CommanderHPSave[1][0] = 0
            CommanderHP[1][0] = hp
        end
        if hp< (CommanderHP[1][0]-0.0) and CheckCommanderHPState[1][0] == 0 then
            CheckCommanderHPState[1][0] = 1
            CustomFunction361()
        elseif hp>= 0 and hp < 0.2 and CheckCommanderHPState[1][0] == 1 then
            CheckCommanderHPState[1][0] = 2
            CustomFunction367()
        elseif hp<= 0 and CheckCommanderHPState[1][0] == 2 then
            CheckCommanderHPState[1][0] = 3
            CustomFunction369()
        end
    end
    if userIdx == 99 and slotIdx == 3 then
        if CommanderHPSave[99][3] == 1 then
            CommanderHPSave[99][3] = 0
            CommanderHP[99][3] = hp
        end
        if hp>= 0.4 and hp < 0.5 and CheckCommanderHPState[99][3] == 0 then
            CheckCommanderHPState[99][3] = 1
            CustomFunction220()
        end
    end
end
-- [필수]스킬 사용(skillActive : 0(중지), 1(사용)) ---------------------------------------------------------------------------------------------------------
function CheckCommanderSkill(userIdx, slotIdx, skillActive)
    if userIdx == 0 and slotIdx == 0 and skillActive == 1 and CheckCommanderSkillState == 0 then
        RemoveCheckSkill(0,0)
        CheckCommanderSkillState = 1
        CustomFunction94()
    elseif userIdx == 0 and slotIdx == 0 and skillActive == 0 and CheckCommanderSkillState == 1 then
        RemoveCheckSkill(0,0)
        CheckCommanderSkillState = 2
        CustomFunction146()
    elseif userIdx == 0 and slotIdx == 0 and skillActive == 1 and CheckCommanderSkillState == 2 then
        RemoveCheckSkill(0,0)
        CheckCommanderSkillState = 3
        CustomFunction183()
    elseif userIdx == 0 and slotIdx == 1 and skillActive == 1 and CheckCommanderSkillState == 3 then
        RemoveCheckSkill(0,1)
        CheckCommanderSkillState = 4
        CustomFunction255()
    elseif userIdx == 0 and slotIdx == 0 and skillActive == 0 and CheckCommanderSkillState == 4 then
        RemoveCheckSkill(0,0)
        CheckCommanderSkillState = 5
        CustomFunction275()
    elseif userIdx == 0 and slotIdx == 0 and skillActive == 1 and CheckCommanderSkillState == 5 then
        RemoveCheckSkill(0,0)
        CheckCommanderSkillState = 6
        CustomFunction320()
    end
end
-- [필수]체크포인트 선택 -----------------------------------------------------------------------------------------------------
function CheckTouchCheckPoint(userIdx, slotIdx, checkPointId)
    if userIdx == 0 and slotIdx == 0 and checkPointId == 2 then
        RemoveTouchCheckPoint(0,0,2)
        CustomFunction34()
    end
end
-- [필수]지휘관 선택 ---------------------------------------------------------------------------------------------------------
function CheckSelectCommander(userIdx, slotIdx)
end
-- [필수] 타겟 지휘관 선택 --------------------------------------------------------------------------------------------------
function CheckTargetCommander(userIdx, slotIdx, targetUserIdx, targetSlotIdx)
    if userIdx == 0 and slotIdx == 0 and targetUserIdx == 99 and targetSlotIdx == 2 and CheckTargetCommanderState[0][0][99][2] == 1 then
        RemoveTouchCheckPoint(0,0,99)
        CustomFunction107()
    end
end
-- [필수] 지휘관 베테랑 랭크업 ----------------------------------------------------------------------------------------------
function CheckVeterancy(userIdx, slotIdx, veterancyRank)
end
-- [필수] 지휘관 부대수 체크 ----------------------------------------------------------------------------------------------
function CheckTroopNum(userIdx, slotIdx, troopNum)
    if userIdx == 99 and slotIdx == 2 and troopNum == 4 then
        RemoveCheckTroopNum(99,2)
        CustomFunction111()
    elseif userIdx == 1 and slotIdx == 2 and troopNum == 0 then
        RemoveCheckTroopNum(1,2)
        CustomFunction355()
    end
end
-- [필수] 지휘관 이동 체크 ----------------------------------------------------------------------------------------------
function CheckTouchMove(userIdx, slotIdx, movex, movez, directionY)
    Log("directionY : " .. directionY)
    if userIdx == 0 and slotIdx == 0 and CheckCommanderMoveState == 0 and directionY >= 30 and directionY <= 60 and CheckCommanderMoveOn == 1 then
        CheckCommanderMoveState = 1
        CheckCommanderMoveOn = 0
        CustomFunction78()
    elseif userIdx == 0 and slotIdx == 0 and CheckCommanderMoveState == 1 and directionY >= 75 and directionY <= 105 and CheckCommanderMoveOn == 1 then
        CheckCommanderMoveState = 2
        CheckCommanderMoveOn = 0
        CustomFunction158()
    elseif userIdx == 0 and slotIdx == 1 and CheckCommanderMoveState == 2 and directionY >= 75 and directionY <= 105 and CheckCommanderMoveOn == 1 then
        CheckCommanderMoveState = 3
        CheckCommanderMoveOn = 0
        CustomFunction212()
    elseif userIdx == 0 and slotIdx == 1 and CheckCommanderMoveState == 3 and directionY >= 165 and directionY <= 195 and CheckCommanderMoveOn == 1 then
        CheckCommanderMoveState = 4
        CheckCommanderMoveOn = 0
        CustomFunction240()
    elseif userIdx == 0 and slotIdx == 0 and CheckCommanderMoveState == 4 and directionY >= -15 and directionY <= 15 and CheckCommanderMoveOn == 1 then
        CheckCommanderMoveState = 5
        CheckCommanderMoveOn = 0
        CustomFunction287()
    end
end
-- [필수] 지휘관 이동 상태 체크 ----------------------------------------------------------------------------------------------
function CheckCommanderMove(userIdx, slotIdx, state)
    if userIdx == 0 and slotIdx == 0 and state == 1 and CheckCommanderMoveStateState == 0 then
        RemoveCheckCommanderMove(0,0)
        CheckCommanderMoveStateState = 1
        CustomFunction12()
    elseif userIdx == 0 and slotIdx == 0 and state == 1 and CheckCommanderMoveStateState == 1 then
        RemoveCheckCommanderMove(0,0)
        CheckCommanderMoveStateState = 2
        CustomFunction87()
    elseif userIdx == 0 and slotIdx == 0 and state == 1 and CheckCommanderMoveStateState == 2 then
        RemoveCheckCommanderMove(0,0)
        CheckCommanderMoveStateState = 3
        CustomFunction173()
    elseif userIdx == 0 and slotIdx == 1 and state == 1 and CheckCommanderMoveStateState == 3 then
        RemoveCheckCommanderMove(0,1)
        CheckCommanderMoveStateState = 4
        CustomFunction248()
    elseif userIdx == 0 and slotIdx == 0 and state == 1 and CheckCommanderMoveStateState == 4 then
        RemoveCheckCommanderMove(0,0)
        CheckCommanderMoveStateState = 5
        CustomFunction310()
    elseif userIdx == 1 and slotIdx == 2 and state == 1 and CheckCommanderMoveStateState == 5 then
        RemoveCheckCommanderMove(1,2)
        CheckCommanderMoveStateState = 6
        CustomFunction336()
    end
end
-- [필수] UI 클릭 체크 ----------------------------------------------------------------------------------------------
function ClickUI(uiName)
    if uiName == "Skill Button" and CheckClickUIState == 0 then
        CheckClickUIState = 1
        CustomFunction92()
    elseif uiName == "Skill Button" and CheckClickUIState == 1 then
        CheckClickUIState = 2
        CustomFunction144()
    elseif uiName == "Skill Button" and CheckClickUIState == 2 then
        CheckClickUIState = 3
        CustomFunction181()
    elseif uiName == "Commander Button - Client 1" and CheckClickUIState == 3 then
        CheckClickUIState = 4
        CustomFunction196()
    elseif uiName == "Skill Button" and CheckClickUIState == 4 then
        CheckClickUIState = 5
        CustomFunction253()
    elseif uiName == "Commander Button - Client 0" and CheckClickUIState == 5 then
        CheckClickUIState = 6
        CustomFunction266()
    elseif uiName == "Skill Button" and CheckClickUIState == 6 then
        CheckClickUIState = 7
        CustomFunction273()
    elseif uiName == "Skill Button" and CheckClickUIState == 7 then
        CheckClickUIState = 8
        CustomFunction318()
    elseif uiName == "Commander Button - Client 1" and CheckClickUIState == 8 then
        CheckClickUIState = 9
        CustomFunction329()
    elseif uiName == "Skill Button" and CheckClickUIState == 9 then
        CheckClickUIState = 10
        CustomFunction341()
    end
end
-- [필수] 타이머 체크 ----------------------------------------------------------------------------------------------
function CheckGameTimer(time)
   TimerUpdate(time)
end
-- [필수] 지휘관 전멸 체크 ----------------------------------------------------------------------------------------------
function CheckCommanderRetreat(userIdx, slotIdx)
end
-- [필수] 커스텀 조건 체크 ----------------------------------------------------------------------------------------------
function CheckCustomCondition()
end
-- Custom 함수 ---------------------------------------------------------------------------------------------------------
function CustomFunction0()
    Sleep(0.1, "CustomFunction1000")
end
function CustomFunction1000()
    cameraOption= {"Coordinate","23250^9570","Coordinate","1250^7250"}
    SetCamera(cameraOption,4.0,"Constant")
    Sleep(1.0,"CustomFunction1001")
end
function CustomFunction1001()
    HideBattleUI()
    ActiveUI("Prologue",false)
    Sleep(1.0,"CustomFunction1002")
end
function CustomFunction1002()
    CommanderPosition(0,0,"Coordinate","1250^9870^180")
    CommanderMove(0,0,"Coordinate","1250^7250^180")
    AddCheckCommanderMove(0,0)
end
function CustomFunction12()
    CinemaCutSceneOnReady()
    Sleep(0.7, "CustomFunction1003")
end
function CustomFunction1003()
    FocusCamera(0,0)
    TextPrint("CutScene Label","[000000]사령관님. [FFAF2E]작전 지역[000000]에 도착했습니다. \n우선 [FFAF2E]지휘소를 설치[000000]해야 합니다.  ")
    Touch("CustomFunction1004")
end
function CustomFunction1004()
    TextPrint("CutScene Label","[000000][FFAF2E]윈터스 부대[000000]로 아래쪽에 있는 지휘소를 [FFAF2E]점령[000000]하시기 바랍니다. ")
    Touch("CustomFunction1005")
end
function CustomFunction1005()
    CutSceneOffReady()
    Sleep(0.5, "CustomFunction1006")
end
function CustomFunction1006()
    Sleep(1.0,"CustomFunction1007")
end
function CustomFunction1007()
    cameraOption= {"Recent","None","CheckPoint","2"}
    SetCamera(cameraOption,1,"Deceleration")
    Sleep(1.0,"CustomFunction1008")
end
function CustomFunction1008()
    TouchGuideView(32,36.8)
    HideUI("Commander1")
    HideUI("Commander2")
    HideUI("Commander3")
    HideUI("Commander4")
    HideUI("Commander5")
    HideUI("Commander6")
    HideUI("Commander7")
    HideUI("Commander8")
    HideUI("Commander9")
    HideUI("Commander10")
    CinematicOffReady()
    AddTouchCheckPoint(0,0,2)
end
function CustomFunction34()
    TouchGuideHide()
    CinematicOnReady()
    cameraOption= {"Recent","None","Commander","0^0"}
    SetCamera(cameraOption,1.0,"Constant")
    Sleep(1.0,"CustomFunction1009")
end
function CustomFunction1009()
    FocusCamera(0,0)
    CommanderScript(0,0,"[000000]지휘소를 설치한다!\n이동! ",2.0)
    AddCheckConquest(2,1)
end
function CustomFunction42()
    CinemaCutSceneOnReady()
    Sleep(0.7, "CustomFunction1010")
end
function CustomFunction1010()
    TextPrint("CutScene Label","[000000]이번 작전은 [FFAF2E]이 지역[000000]에 고립되어 있는 \n아군 [FFAF2E]기관총 부대[000000]를 구출하는 것입니다. ")
    Touch("CustomFunction1011")
end
function CustomFunction1011()
    TextPrint("CutScene Label","[000000]잠시만 기다리시면,\n정찰병에 의해 기관총 부대의 [FFAF2E]위치가 파악[000000]될 것입니다. ")
    Touch("CustomFunction1012")
end
function CustomFunction1012()
    CutSceneOffReady()
    Sleep(0.5, "CustomFunction1013")
end
function CustomFunction1013()
    CommanderSpawn(99,1,"Coordinate","9750^16240^180")
    CommanderSpawn(99,2,"Coordinate","7750^13920^45")
    CommanderSpawn(99,3,"Coordinate","11750^13920^315")
    StartSkill(99,2,"Coordinate","7750^13920^45")
    StartSkill(99,3,"Coordinate","11750^13920^315")
    CommanderSpawn(1,0,"CheckPoint","4")
    CommanderSpawn(1,1,"CheckPoint","4")
    CommanderSpawn(1,2,"Coordinate","20250^11890^135")
    Sleep(4.0,"CustomFunction1014")
end
function CustomFunction1014()
    cameraOption= {"Recent","None","Commander","99^1"}
    SetCamera(cameraOption,1.0,"Constant")
    Sleep(1.0,"CustomFunction1015")
end
function CustomFunction1015()
    CommanderScript(99,1,"[000000]일제사격!\n여기서 벗어나야 한다. ",2.0)
    Sleep(2.0,"CustomFunction1016")
end
function CustomFunction1016()
    CommanderScript(99,2,"[000000]놈들은 포위당했다.\n한놈도 놓치지 마라! ",2.0)
    Sleep(4.0,"CustomFunction1017")
end
function CustomFunction1017()
    cameraOption= {"Recent","None","CheckPoint","2"}
    SetCamera(cameraOption,1.0,"Deceleration")
    Sleep(1.0,"CustomFunction1018")
end
function CustomFunction1018()
    CinemaCutSceneOnReady()
    Sleep(0.7, "CustomFunction1019")
end
function CustomFunction1019()
    TextPrint("CutScene Label","[000000]서둘러야 합니다.\n저런 상태에서는 기관총 부대가 오래 버티지 못할 것입니다. ")
    Touch("CustomFunction1020")
end
function CustomFunction1020()
    TextPrint("CutScene Label","[000000]기관총 부대를 구출하려면\n적의 [FFAF2E]포위망[000000]을 풀어야 합니다. ")
    Touch("CustomFunction1021")
end
function CustomFunction1021()
    TextPrint("CutScene Label","[000000]윈터스 부대를 적 부대 [FFAF2E]방향[000000]에 맞추어 \n뒤쪽에 배치시키 바랍니다. ")
    Touch("CustomFunction1022")
end
function CustomFunction1022()
    TextPrint("CutScene Label","[000000]배치할 위치를 [FFAF2E]누르고[000000] 있으면\n[FFAF2E]배치 방향을 지정[000000]할 수 있습니다. ")
    Touch("CustomFunction1023")
end
function CustomFunction1023()
    CutSceneOffReady()
    Sleep(0.5, "CustomFunction1024")
end
function CustomFunction1024()
    cameraOption= {"Recent","None","Coordinate","7250^12470"}
    SetCamera(cameraOption,1.0,"Constant")
    Sleep(1.0,"CustomFunction1025")
end
function CustomFunction1025()
    CinematicOffReady()
    PressGuideView(32,36.8,1)
    ShowUI("Commander1")
    CheckCommanderMoveOn = 1
end
function CustomFunction78()
    CinematicOnReady()
    PressGuideHide()
    cameraOption= {"Recent","None","Commander","0^0"}
    SetCamera(cameraOption,1.0,"Constant")
    Sleep(1.0,"CustomFunction1026")
end
function CustomFunction1026()
    CommanderScript(0,0,"[000000]아군을 구출하러 이동한다!\n서둘러라! ",2.0)
    FocusCamera(0,0)
    CommanderHPSave[0][0] = 1
    AddCheckCommanderMove(0,0)
end
function CustomFunction87()
    CinemaCutSceneOnReady()
    Sleep(0.7, "CustomFunction1027")
end
function CustomFunction1027()
    TextPrint("CutScene Label","[000000]우선은 [FFAF2E]진지 구축[000000]으로 아군 피해를 최소화 시켜야 합니다. ")
    Touch("CustomFunction1028")
end
function CustomFunction1028()
    CinemaCutSceneOffReady()
    Sleep(0.5, "CustomFunction1029")
end
function CustomFunction1029()
    TouchGuideView(-546,-302)
end
function CustomFunction92()
    TouchGuideHide()
    AddCheckSkill(0,0)
end
function CustomFunction94()
    CinematicOnReady()
    CommanderScript(0,0,"[000000]이곳에 진지를 구축한다! ",2.0)
    Sleep(5.0,"CustomFunction1030")
end
function CustomFunction1030()
    CinemaCutSceneOnReady()
    Sleep(0.7, "CustomFunction1031")
end
function CustomFunction1031()
    TextPrint("CutScene Label","[000000]이제 윈터스 부대에게 [FFAF2E]집중 사격 명령[000000]을 내려주십시요. ")
    Touch("CustomFunction1032")
end
function CustomFunction1032()
    TextPrint("CutScene Label","[000000]진지에 있는 적 부대는 [FFAF2E]뒤에서 공격[000000]하면 피해를 입힐 수 있습니다. ")
    Touch("CustomFunction1033")
end
function CustomFunction1033()
    TextPrint("CutScene Label","[000000]피해가 심해지면 곧 [FFAF2E]포위를 풀게[000000] 될 것입니다. ")
    Touch("CustomFunction1034")
end
function CustomFunction1034()
    CinemaCutSceneOffReady()
    Sleep(0.5, "CustomFunction1035")
end
function CustomFunction1035()
    cameraOption= {"Recent","None","Coordinate","7250^12470"}
    SetCamera(cameraOption,0.5,"Constant")
    Sleep(0.5,"CustomFunction1036")
end
function CustomFunction1036()
    TouchGuideView(294,133)
    CheckTargetCommanderState[0][0][99][2] = CheckTargetCommanderState[0][0][99][2] + 1
end
function CustomFunction107()
    TouchGuideHide()
    CommanderScript(0,0,"[000000]집중 사격! ",2.0)
    CinematicOnReady()
    AddCheckTroopNum(99,2)
end
function CustomFunction111()
    FocusCamera(99,2)
    CommanderScript(99,2,"[000000]제길..안되겠다!\n포위를 풀고 재정렬하라! ",2.0)
    EndSkill(99,2)
    Sleep(3.5,"CustomFunction1037")
end
function CustomFunction1037()
    CommanderMove(99,2,"Coordinate","9750^13920^270")
    Sleep(2.0,"CustomFunction1038")
end
function CustomFunction1038()
    FocusCamera(99,1)
    CommanderScript(99,1,"[000000]포위가 풀렸다!\n이탈한다! ",2.0)
    CommanderMove(99,1,"Coordinate","6750^15080^225")
    EndSkill(99,3)
    Sleep(6.0,"CustomFunction1039")
end
function CustomFunction1039()
    CommanderMove(99,1,"CheckPoint","2")
    Sleep(1.0,"CustomFunction1040")
end
function CustomFunction1040()
    cameraOption= {"Recent","None","Commander","0^0"}
    SetCamera(cameraOption,1.0,"Constant")
    Sleep(1.0,"CustomFunction1041")
end
function CustomFunction1041()
    CommanderScript(0,0,"[000000]후방은 우리가 맡겠다.\n기관총 부대는 지휘소로 후퇴하라! ",2.0)
    Sleep(4.0,"CustomFunction1042")
end
function CustomFunction1042()
    CommanderScript(99,1,"[000000]부탁한다! ",2.0)
    Sleep(2.0,"CustomFunction1043")
end
function CustomFunction1043()
    FocusCamera(99,2)
    CommanderScript(99,2,"[000000]도망가게 두어서는 안된다!\n쫓아라! ",2.0)
    CommanderMove(99,2,"Commander","0^0")
    CommanderMove(99,3,"Commander","0^0")
    Sleep(2.0,"CustomFunction1044")
end
function CustomFunction1044()
    FocusCamera(0,0)
    Sleep(1.0,"CustomFunction1045")
end
function CustomFunction1045()
    CinemaCutSceneOnReady()
    Sleep(0.7, "CustomFunction1046")
end
function CustomFunction1046()
    TextPrint("CutScene Label","[000000]여기서 적 2개의 부대를 상대하면 또다시 포위당할 수 있습니다. ")
    Touch("CustomFunction1047")
end
function CustomFunction1047()
    TextPrint("CutScene Label","[000000]먼저, 다른 곳으로 이동하기 위해\n윈터스 부대에게 [FFAF2E]진지 해체[000000] 명령을 내려주십시요. ")
    Touch("CustomFunction1048")
end
function CustomFunction1048()
    CinemaCutSceneOffReady()
    Sleep(0.5, "CustomFunction1049")
end
function CustomFunction1049()
    TouchGuideView(-546,-302)
end
function CustomFunction144()
    TouchGuideHide()
    AddCheckSkill(0,0)
end
function CustomFunction146()
    CinematicOnReady()
    CommanderScript(0,0,"[000000]진지를 해체한다!\n서둘러라! ",2.0)
    Sleep(5.0,"CustomFunction1050")
end
function CustomFunction1050()
    CinemaCutSceneOnReady()
    Sleep(0.7, "CustomFunction1051")
end
function CustomFunction1051()
    TextPrint("CutScene Label","[000000]이제, 포위 당할 위험이 없는 [FFAF2E]강 건너편[000000]으로 빨리 이동해야 합니다. ")
    Touch("CustomFunction1052")
end
function CustomFunction1052()
    CutSceneOffReady()
    Sleep(0.5, "CustomFunction1053")
end
function CustomFunction1053()
    cameraOption= {"Recent","None","Coordinate","1750^6960"}
    SetCamera(cameraOption,1.0,"Constant")
    Sleep(1.0,"CustomFunction1054")
end
function CustomFunction1054()
    CinematicOffReady()
    PressGuideView(32,36.8,2)
    CheckCommanderMoveOn = 1
end
function CustomFunction158()
    CinematicOnReady()
    PressGuideHide()
    cameraOption= {"Recent","None","Commander","0^0"}
    SetCamera(cameraOption,2.0,"Constant")
    Sleep(2.0,"CustomFunction1055")
end
function CustomFunction1055()
    FocusCamera(0,0)
    CommanderScript(0,0,"[000000]우리도 이동한다! ",2.0)
    CommanderMove(99,2,"Coordinate","3250^7830^225")
    CommanderMove(99,3,"Coordinate","4250^8410^225")
    CommanderMove(1,0,"CheckPoint","3")
    CommanderMove(1,1,"CheckPoint","4")
    CommanderMove(1,2,"Coordinate","11750^6960^270")
    Sleep(3.0,"CustomFunction1056")
end
function CustomFunction1056()
    CommanderHPSave[99][2] = 1
    AddCheckCommanderMove(0,0)
end
function CustomFunction173()
    CommanderMove(99,1,"CheckPoint","1")
    CinemaCutSceneOnReady()
    Sleep(0.7, "CustomFunction1057")
end
function CustomFunction1057()
    CommanderMove(99,3,"Coordinate","3250^7830^225")
    TextPrint("CutScene Label","[000000]이 곳처럼 좁은 길이라면 적군 부대를 막아낼 수 있습니다. ")
    Touch("CustomFunction1058")
end
function CustomFunction1058()
    TextPrint("CutScene Label","[000000]윈터스 부대에게 [FFAF2E]진지 구축[000000] 명령을 내려주십시요. ")
    Touch("CustomFunction1059")
end
function CustomFunction1059()
    CinemaCutSceneOffReady()
    Sleep(0.5, "CustomFunction1060")
end
function CustomFunction1060()
    TouchGuideView(-546,-302)
end
function CustomFunction181()
    TouchGuideHide()
    AddCheckSkill(0,0)
end
function CustomFunction183()
    CinematicOnReady()
    CommanderScript(0,0,"[000000]이곳에 진지를 구축한다! ",2.0)
    Sleep(4.0,"CustomFunction1061")
end
function CustomFunction1061()
    cameraOption= {"Recent","None","CheckPoint","2"}
    SetCamera(cameraOption,1.0,"Constant")
    Sleep(1.0,"CustomFunction1062")
end
function CustomFunction1062()
    CinemaCutSceneOnReady()
    Sleep(0.7, "CustomFunction1063")
end
function CustomFunction1063()
    TextPrint("CutScene Label","[000000]합류한 기관총 부대가 [FFAF2E]가니어 부대[000000]로 재편성 되었습니다. ")
    Touch("CustomFunction1064")
end
function CustomFunction1064()
    TextPrint("CutScene Label","[000000]가니어 부대에게 [FFAF2E]출동 명령[000000]을 내려주십시요. ")
    Touch("CustomFunction1065")
end
function CustomFunction1065()
    ShowUI("Commander2")
    CinemaCutSceneOffReady()
    Sleep(0.5, "CustomFunction1066")
end
function CustomFunction1066()
    TouchGuideView(-308,-307)
end
function CustomFunction196()
    TouchGuideHide()
end
function CustomFunction198()
    CinematicOnReady()
    FocusCamera(0,1)
    Sleep(2.0,"CustomFunction1067")
end
function CustomFunction1067()
    CommanderScript(0,1,"[000000]가니어 부대 출동완료! ",2.0)
    Sleep(2.0,"CustomFunction1068")
end
function CustomFunction1068()
    CinemaCutSceneOnReady()
    Sleep(0.7, "CustomFunction1069")
end
function CustomFunction1069()
    TextPrint("CutScene Label","[000000]가니어 부대가 전선에 합류하면, 적 부대를 충분히 막아낼 수 있습니다. ")
    Touch("CustomFunction1070")
end
function CustomFunction1070()
    TextPrint("CutScene Label","[000000]가니어 부대를 윈터스 부대 뒤쪽에 배치시키시면 됩니다. ")
    Touch("CustomFunction1071")
end
function CustomFunction1071()
    CinemaCutSceneOffReady()
    Sleep(0.5, "CustomFunction1072")
end
function CustomFunction1072()
    cameraOption= {"Recent","None","Coordinate","1250^7250"}
    SetCamera(cameraOption,1.0,"Constant")
    Sleep(1.0,"CustomFunction1073")
end
function CustomFunction1073()
    PressGuideView(32,36.8,3)
    CheckCommanderMoveOn = 1
end
function CustomFunction212()
    CinematicOnReady()
    PressGuideHide()
    cameraOption= {"Recent","None","Commander","0^1"}
    SetCamera(cameraOption,1.0,"Constant")
    Sleep(1.0,"CustomFunction1074")
end
function CustomFunction1074()
    FocusCamera(0,1)
    CommanderScript(0,1,"[000000]복수할 때가 되었다!\n돌격! ",2.0)
end
function CustomFunction220()
    FocusCamera(99,3)
    CommanderScript(99,3,"[000000]본부!\n박격포 지원이 필요하다! ",2.0)
    CommanderMove(1,0,"Coordinate","3250^7830^225")
    CommanderMove(1,1,"CheckPoint","4")
    CommanderMove(1,2,"Commander","0^0")
    Sleep(4.0,"CustomFunction1075")
end
function CustomFunction1075()
    FocusCamera(0,1)
    CommanderScript(0,1,"[000000]지원군이 오기 전에 격퇴시켜야 한다! ",2.0)
    Sleep(8.0,"CustomFunction1076")
end
function CustomFunction1076()
    CinemaCutSceneOnReady()
    Sleep(0.7, "CustomFunction1077")
end
function CustomFunction1077()
    TextPrint("CutScene Label","[000000]사령관님!\n적 [FFAF2E]박격포 부대[000000]가 포격을 해오고 있습니다. ")
    Touch("CustomFunction1078")
end
function CustomFunction1078()
    TextPrint("CutScene Label","[000000]이대로 있다가는 모두 전멸하게 됩니다. ")
    Touch("CustomFunction1079")
end
function CustomFunction1079()
    TextPrint("CutScene Label","[000000]가니어 부대를 매복시키고,\n윈터스 부대로 적 박격포 부대를 유인해야 합니다. ")
    Touch("CustomFunction1080")
end
function CustomFunction1080()
    TextPrint("CutScene Label","[000000]먼저, 가니어 부대를 위쪽으로 이동시켜 주십시요. ")
    Touch("CustomFunction1081")
end
function CustomFunction1081()
    CinemaCutSceneOffReady()
    Sleep(0.5, "CustomFunction1082")
end
function CustomFunction1082()
    cameraOption= {"Recent","None","Coordinate","750^9860"}
    SetCamera(cameraOption,1.0,"Constant")
    Sleep(1.0,"CustomFunction1083")
end
function CustomFunction1083()
    PressGuideView(32,36.8,4)
    CheckCommanderMoveOn = 1
end
function CustomFunction240()
    CinematicOnReady()
    PressGuideHide()
    cameraOption= {"Recent","None","Commander","0^1"}
    SetCamera(cameraOption,1.0,"Constant")
    Sleep(1.0,"CustomFunction1084")
end
function CustomFunction1084()
    FocusCamera(0,1)
    CommanderMove(1,2,"Coordinate","5250^8990^225")
    AddCheckCommanderMove(0,1)
end
function CustomFunction248()
    CinemaCutSceneOnReady()
    Sleep(0.7, "CustomFunction1085")
end
function CustomFunction1085()
    TextPrint("CutScene Label","[000000]이 곳에서 매복하는 것이 좋겠습니다.\n가니어 부대에게 [FFAF2E]위장 매복[000000] 명령을 내려주십시요. ")
    Touch("CustomFunction1086")
end
function CustomFunction1086()
    CinemaCutSceneOffReady()
    Sleep(0.5, "CustomFunction1087")
end
function CustomFunction1087()
    TouchGuideView(-546,-302)
end
function CustomFunction253()
    TouchGuideHide()
    AddCheckSkill(0,1)
end
function CustomFunction255()
    CinematicOnReady()
    CommanderScript(0,1,"[000000]이곳에서 매복한다! ",2.0)
    Sleep(3.0,"CustomFunction1088")
end
function CustomFunction1088()
    cameraOption= {"Recent","None","Commander","0^0"}
    SetCamera(cameraOption,1.0,"Deceleration")
    Sleep(1.0,"CustomFunction1089")
end
function CustomFunction1089()
    CinemaCutSceneOnReady()
    Sleep(0.7, "CustomFunction1090")
end
function CustomFunction1090()
    TextPrint("CutScene Label","[000000]다음은 윈터스 부대 차례입니다. 윈터스 부대를 선택해주십시요. ")
    Touch("CustomFunction1091")
end
function CustomFunction1091()
    CinemaCutSceneOffReady()
    Sleep(0.5, "CustomFunction1092")
end
function CustomFunction1092()
    TouchGuideView(-419,-305)
end
function CustomFunction266()
    TouchGuideHide()
    CommanderMove(1,2,"Coordinate","3250^7830^225")
    CinemaCutSceneOnReady()
    Sleep(0.7, "CustomFunction1093")
end
function CustomFunction1093()
    TextPrint("CutScene Label","[000000]이제 진지 구축 해제 명령을 내려주십시요.\n서둘러야 합니다. ")
    Touch("CustomFunction1094")
end
function CustomFunction1094()
    CinemaCutSceneOffReady()
    Sleep(0.5, "CustomFunction1095")
end
function CustomFunction1095()
    TouchGuideView(-546,-302)
end
function CustomFunction273()
    TouchGuideHide()
    AddCheckSkill(0,0)
end
function CustomFunction275()
    CinematicOnReady()
    CommanderScript(0,0,"[000000]진지를 해체한다!\n서둘러라! ",2.0)
    Sleep(3.5,"CustomFunction1096")
end
function CustomFunction1096()
    CinemaCutSceneOnReady()
    Sleep(0.7, "CustomFunction1097")
end
function CustomFunction1097()
    TextPrint("CutScene Label","[000000]윈터스 부대가 전멸하기 전에 아군 지휘소으로 이동시켜야 합니다. ")
    Touch("CustomFunction1098")
end
function CustomFunction1098()
    CutSceneOffReady()
    Sleep(0.5, "CustomFunction1099")
end
function CustomFunction1099()
    cameraOption= {"Recent","None","Coordinate","1250^3190"}
    SetCamera(cameraOption,1.0,"Constant")
    Sleep(1.0,"CustomFunction1100")
end
function CustomFunction1100()
    CinematicOffReady()
    PressGuideView(32,36.8,5)
    CheckCommanderMoveOn = 1
end
function CustomFunction287()
    CinematicOnReady()
    PressGuideHide()
    cameraOption= {"Recent","None","Commander","0^0"}
    SetCamera(cameraOption,1.0,"Constant")
    Sleep(1.0,"CustomFunction1101")
end
function CustomFunction1101()
    FocusCamera(0,0)
    CommanderScript(0,0,"[000000]지휘소로 후퇴한다! ",2.0)
    Sleep(1.0,"CustomFunction1102")
end
function CustomFunction1102()
    cameraOption= {"Recent","None","Commander","1^0"}
    SetCamera(cameraOption,1.0,"Constant")
    Sleep(1.0,"CustomFunction1103")
end
function CustomFunction1103()
    FocusCamera(1,0)
    CommanderScript(1,0,"[000000]적이 도망간다!\n쫓아라! ",2.0)
    Sleep(2.0,"CustomFunction1104")
end
function CustomFunction1104()
    CommanderMove(1,0,"CheckPoint","2")
    CommanderMove(1,1,"CheckPoint","4")
    CommanderMove(99,2,"CheckPoint","4")
    CommanderMove(99,3,"CheckPoint","4")
    cameraOption= {"Recent","None","Commander","0^0"}
    SetCamera(cameraOption,1.0,"Constant")
    Sleep(1.0,"CustomFunction1105")
end
function CustomFunction1105()
    FocusCamera(0,0)
    AddCheckCommanderMove(0,0)
end
function CustomFunction310()
    CommanderMove(1,0,"Commander","0^0")
    CommanderMove(1,1,"CheckPoint","4")
    CommanderMove(1,2,"Coordinate","750^7940^0")
    CinemaCutSceneOnReady()
    Sleep(0.7, "CustomFunction1106")
end
function CustomFunction1106()
    TextPrint("CutScene Label","[000000]여기서 진지 구축을 한 뒤 최대한 버텨야 합니다. ")
    Touch("CustomFunction1107")
end
function CustomFunction1107()
    CinemaCutSceneOffReady()
    Sleep(0.5, "CustomFunction1108")
end
function CustomFunction1108()
    TouchGuideView(-546,-302)
end
function CustomFunction318()
    TouchGuideHide()
    AddCheckSkill(0,0)
end
function CustomFunction320()
    CinematicOnReady()
    CommanderScript(0,0,"[000000]더 이상 물러날 곳은 없다!\n끝까지 버텨라! ",2.0)
    Sleep(4.0,"CustomFunction1109")
end
function CustomFunction1109()
    CinemaCutSceneOnReady()
    Sleep(0.7, "CustomFunction1110")
end
function CustomFunction1110()
    TextPrint("CutScene Label","[000000]이제 승패는 가니어 부대에게 달렸습니다. \n가니어 부대를 선택해주십시요. ")
    Touch("CustomFunction1111")
end
function CustomFunction1111()
    CinemaCutSceneOffReady()
    Sleep(0.5, "CustomFunction1112")
end
function CustomFunction1112()
    CommanderHPSave[1][2] = 1
    TouchGuideView(-308,-307)
end
function CustomFunction329()
    TouchGuideHide()
    CinematicOnReady()
    cameraOption= {"Recent","None","Commander","0^1"}
    SetCamera(cameraOption,1.0,"Constant")
    FocusCamera(0,1)
    CommanderScript(0,1,"[000000]적 박격포 부대가 접근할때까지 기다린다! ",2.0)
    AddCheckCommanderMove(1,2)
end
function CustomFunction336()
    CinemaCutSceneOnReady()
    Sleep(0.7, "CustomFunction1113")
end
function CustomFunction1113()
    TextPrint("CutScene Label","[000000]지금입니다! 가니어 부대에게 위장 매복 해제를 명령하십시요! ")
    Touch("CustomFunction1114")
end
function CustomFunction1114()
    CinemaCutSceneOffReady()
    Sleep(0.5, "CustomFunction1115")
end
function CustomFunction1115()
    TouchGuideView(-546,-302)
end
function CustomFunction341()
    TouchGuideHide()
    CinematicOnReady()
    Sleep(3.0,"CustomFunction1116")
end
function CustomFunction1116()
    CommanderScript(0,1,"[000000]이 때다!\n일제 사격! ",2.0)
    CommanderMove(0,1,"Commander","1^2")
    Sleep(2.0,"CustomFunction1117")
end
function CustomFunction1117()
    FocusCamera(1,2)
    CommanderScript(1,2,"[000000]매, 매복이다! ",2.0)
    Sleep(2.0,"CustomFunction1118")
end
function CustomFunction1118()
    CommanderScript(1,2,"[000000]뒤에 있는\n기관총 부대를 공격하라! ",2.0)
    CommanderMove(1,2,"Coordinate","750^7540^0")
    CommanderMove(1,0,"Coordinate","1250^4930^180")
    CommanderMove(1,1,"CheckPoint","4")
    AddCheckTroopNum(1,2)
end
function CustomFunction355()
    FocusCamera(0,1)
    CinemaCutSceneOnReady()
    Sleep(0.7, "CustomFunction1119")
end
function CustomFunction1119()
    TextPrint("CutScene Label","[000000]적 박격포 부대가 전멸되었습니다.\n이제 남은 적 부대는 하나뿐입니다. ")
    Touch("CustomFunction1120")
end
function CustomFunction1120()
    CommanderHPSave[1][0] = 1
    CutSceneOffReady()
    Sleep(0.5, "CustomFunction1121")
end
function CustomFunction1121()
end
function CustomFunction361()
    cameraOption= {"Recent","None","Coordinate","1250^4930"}
    SetCamera(cameraOption,1.0,"Constant")
    CommanderScript(1,0,"[000000]당했다!\n기관총 부대를 먼저 공격해라! ",2.0)
    Sleep(1.0,"CustomFunction1122")
end
function CustomFunction1122()
    CommanderMove(1,0,"Commander","0^1")
end
function CustomFunction367()
    CommanderScript(1,0,"[000000]안되겠다!\n후퇴하라! ",2.0)
end
function CustomFunction369()
    cameraOption= {"Recent","None","Commander","0^0"}
    SetCamera(cameraOption,1.0,"Constant")
    Sleep(1.0,"CustomFunction1123")
end
function CustomFunction1123()
    FocusCamera(0,0)
    CommanderScript(0,0,"[000000]와!\n우리의 승리다!! ",2.0)
    Sleep(2.0,"CustomFunction1124")
end
function CustomFunction1124()
    CinemaCutSceneOnReady()
    Sleep(0.7, "CustomFunction1125")
end
function CustomFunction1125()
    TextPrint("CutScene Label","[000000]전멸 당할 수도 있었던 상황이었는데,\n작선이 성공해서 다행입니다. ")
    Touch("CustomFunction1126")
end
function CustomFunction1126()
    TextPrint("CutScene Label","[000000]이번 전투에서 [FFAF2E]박격포[000000]를 얻게되어,\n[FFAF2E]박격포 부대를 편성[000000]할 수 있게 되었습니다. ")
    Touch("CustomFunction1127")
end
function CustomFunction1127()
    TextPrint("CutScene Label","[000000]그럼, 상부에서 다음 명령이 내려오기 전까지 부대를 휴식시키겠습니다. ")
    Touch("CustomFunction1128")
end
function CustomFunction1128()
    CinemaCutSceneOffReady()
    Sleep(0.5, "CustomFunction1129")
end
function CustomFunction1129()
    BattleEnd(0)
end
-- Lua 함수 ---------------------------------------------------------------------------------------------------------
function HideBattleUI()
    HideUI("Client User Control")
    HideUI("MiniMap")
    HideUI("GameInfo")
    HideUI("MP Info")
    ActiveUI("Touch Disabled", true)
    ActiveUI("Main Goal", false)
end
function ShowBattleUI()
    ShowUI("Client User Control")
    if StageNum > 2 then
        ShowUI("MiniMap")
        --ShowUI("GameInfo")
        ShowUI("MP Info")
    end
    if GoalOn == 1 then
        ActiveUI("Main Goal", true)
    end
    ActiveUI("Touch Disabled", false)
end
function CinematicOnReady()
    ActiveUI("Cinematic Open1", true)
    ActiveUI("Cinematic Open2", true)
    HideBattleUI()
end
function CinematicOffReady()
    ActiveUI("Cinematic Close1", true)
    ActiveUI("Cinematic Close2", true)
    Sleep(0.1, "CinematicOffing")
end
function CinematicOffing()
    ActiveUI("Cinematic Open1", false)
    ActiveUI("Cinematic Open2", false)
    Sleep(0.4, "CinematicOff")
end
function CinematicOff()
    ShowBattleUI()
    ActiveUI("Cinematic Close1", false)
    ActiveUI("Cinematic Close2", false)
end
function CutSceneOnReady()
    BattlePause()
    ActiveUI("CutScene Open Character", true)
    Sleep(0.2, "CutSceneOn")
end
function CutSceneOn()
    ActiveUI("CutScene", true)
end
function CutSceneOffReady()
    ActiveUI("CutScene", false)
    ActiveUI("CutScene Open Character", false)
    ActiveUI("CutScene Close Character", true)
    Sleep(0.5, "CutSceneOff")
end
function CutSceneOff()
    ActiveUI("CutScene Close Character", false)
    BattlePlay()
end
function CinemaCutSceneOnReady()
    BattlePause()
    ActiveUI("Cinematic Open1", true)
    ActiveUI("Cinematic Open2", true)
    HideBattleUI()
    Sleep(0.5, "CinemaCutSceneIng")
end
function CinemaCutSceneIng()
    ActiveUI("CutScene Open Character", true)
    Sleep(0.2, "CinemaCutSceneOn")
end
function CinemaCutSceneOn()
    ActiveUI("CutScene", true)
end
function CinemaCutSceneOffReady()
    ActiveUI("CutScene", false)
    ActiveUI("CutScene Open Character", false)
    ActiveUI("CutScene Close Character", true)
    ActiveUI("Cinematic Open1", false)
    ActiveUI("Cinematic Open2", false)
    ActiveUI("Cinematic Close1", true)
    ActiveUI("Cinematic Close2", true)
    Sleep(0.5, "CinemaCutSceneOff")
end
function CinemaCutSceneOff()
    ShowBattleUI()
    ActiveUI("CutScene Close Character", false)
    ActiveUI("Cinematic Close1", false)
    ActiveUI("Cinematic Close2", false)
    BattlePlay()
end
function TouchGuideView(posx, posy)
    BattlePause()
    SetLockCamera(true)
    MoveUI("Touch Focus", posx-30, posy+13)
    MoveUI("Touch Guide", posx, posy)
    MoveUI("Touch Checker", posx, posy)
    ActiveUI("Touch Focus", true)
    ActiveUI("Touch Focus L", true)
    ActiveUI("Touch Focus B", true)
    ActiveUI("Touch Focus T", true)
    ActiveUI("Touch Focus R", true)
    ActiveUI("Touch Focus C", true)
    ActiveUI("Touch Guide", true)
    ActiveUI("Touch Checker", true)
end
function TouchGuideHide()
    SetLockCamera(false)
    ActiveUI("Touch Guide", false)
    ActiveUI("Touch Checker", false)
    ActiveUI("Touch Focus", false)
    ActiveUI("Touch Focus L", false)
    ActiveUI("Touch Focus B", false)
    ActiveUI("Touch Focus T", false)
    ActiveUI("Touch Focus R", false)
    ActiveUI("Touch Focus C", false)
    BattlePlay()
end
function PressGuideView(posx, posy, name)
    BattlePause()
    SetLockCamera(true)
    if name == 1 then
       MoveUI("Press Guide1", posx, posy)
       ActiveUI("Press Guide1", true)
    elseif name == 2 then
       MoveUI("Press Guide2", posx, posy)
       ActiveUI("Press Guide2", true)
    elseif name == 3 then
       MoveUI("Press Guide3", posx, posy)
       ActiveUI("Press Guide3", true)
    elseif name == 4 then
       MoveUI("Press Guide4", posx, posy)
       ActiveUI("Press Guide4", true)
    elseif name == 5 then
       MoveUI("Press Guide5", posx, posy)
       ActiveUI("Press Guide5", true)
    end
    MoveUI("Touch Focus", posx-30, posy+13)
    ActiveUI("Touch Focus", true)
    ActiveUI("Touch Focus L", true)
    ActiveUI("Touch Focus B", true)
    ActiveUI("Touch Focus T", true)
    ActiveUI("Touch Focus R", true)
    ActiveUI("Touch Focus C", true)
    MoveUI("Touch Checker", posx, posy)
    ActiveUI("Touch Checker", true)
end
function PressGuideHide()
    SetLockCamera(false)
    ActiveUI("Touch Focus", false)
    ActiveUI("Touch Focus L", false)
    ActiveUI("Touch Focus B", false)
    ActiveUI("Touch Focus T", false)
    ActiveUI("Touch Focus R", false)
    ActiveUI("Touch Focus C", false)
    ActiveUI("Press Guide1", false)
    ActiveUI("Press Guide2", false)
    ActiveUI("Press Guide3", false)
    ActiveUI("Press Guide4", false)
    ActiveUI("Press Guide5", false)
    ActiveUI("Touch Checker", false)
    BattlePlay()
end
function GoalView(GoalNum, Contents)
    GoalOn = 1
    GoalName = "Goal" .. GoalNum
    GoalTextName = "Goal Contents" .. GoalNum
    GoalText[GoalNum] = Contents
    ActiveUI("Main Goal", true)
    ActiveUI(GoalName, true)
    TextPrint(GoalTextName, GoalText[GoalNum])
end
function GoalComplete(GoalNum)
    CheckName = "Check" .. GoalNum
    GoalTextName = "Goal Contents" .. GoalNum
    ActiveUI(CheckName , true)
    GoalCompleteText = "[888888]".. GoalText[GoalNum]
    TextPrint(GoalTextName, GoalCompleteText)
end
function TimerUpdate(TimerTime)
    RemainTime = TimerMax - TimerTime
    RecentMin = math.floor(RemainTime/60)
    if RecentMin <0 then
      RecentMin = 0
    end
    RecentSec = RemainTime - RecentMin*60
    if RecentSec  <0 then
       RecentSec = 0  
    end
    if RecentSec < 10 then
        TimerText = tostring(RecentMin) .. ":0" .. tostring(RecentSec)
    elseif RecentSec >= 10 then
        TimerText = tostring(RecentMin) .. ":" .. tostring(RecentSec)
    end
    TextPrint("Timer Label", TimerText)
end
function TargetView(posx, posy)
    MoveUI("Target Point", posx, posy)
    MoveUI("Touch Focus", posx, posy)
    ActiveUI("Target Point", true)
    ActiveUI("Touch Focus", true)
end
function TargetHide()
    ActiveUI("Target Point", false)
    ActiveUI("Touch Focus", false)
end